[
  {
    "key": "ctrl+o",
    "command": "workbench.action.quickOpen"
  },
  {
    "key": "ctrl+e",
    "command": "workbench.action.showAllEditorsByMostRecentlyUsed"
  },
  {
    "key": "ctrl+shift+o",
    "command": "revealFileInOS"
  },
  {
    "key": "ctrl+alt+l",
    "command": "editor.action.formatDocument"
  },
  {
    "key": "ctrl+t",
    "command": "workbench.action.terminal.toggleTerminal"
  }
]
